<?xml version="1.0" encoding="UTF-8" standalone="no"?>
<svg width="207px" height="97px" viewBox="0 0 207 97" version="1.1" xmlns="http://www.w3.org/2000/svg" xmlns:xlink="http://www.w3.org/1999/xlink" xmlns:sketch="http://www.bohemiancoding.com/sketch/ns">
    <!-- Generator: Sketch 3.5.2 (25235) - http://www.bohemiancoding.com/sketch -->
    <title>myubic</title>
    <desc>Created with Sketch.</desc>
    <defs></defs>
    <g id="Page-1" stroke="none" stroke-width="1" fill="none" fill-rule="evenodd" sketch:type="MSPage">
        <g id="myubic" sketch:type="MSLayerGroup" transform="translate(0.000000, -1.000000)">
            <path d="M174.62,18.05 C174.631783,17.9256365 174.588901,17.8022963 174.50251,17.7120653 C174.416118,17.6218343 174.294758,17.5736328 174.17,17.58 L172.23,17.41 C172.176355,17.4186224 172.121585,17.4038657 172.079533,17.3694596 C172.037481,17.3350535 172.012171,17.2842902 172.01,17.23 C171.827285,16.0415894 171.491146,14.8819088 171.01,13.78 L172.62,12.41 C172.75091,12.3485162 172.845282,12.2290439 172.87478,12.0874541 C172.904278,11.9458643 172.865467,11.7986457 172.77,11.69 C171.751914,9.79389151 170.39638,8.09947322 168.77,6.69 C168.682945,6.57649892 168.548042,6.50995535 168.405,6.50995535 C168.261958,6.50995535 168.127055,6.57649892 168.04,6.69 L166.44,7.98 C165.470139,7.2654777 164.411203,6.68054142 163.29,6.24 C163.238061,6.22640896 163.194296,6.19147857 163.169527,6.14384585 C163.144758,6.09621314 163.141297,6.04032479 163.16,5.99 C163.233333,5.32333333 163.303333,4.68666667 163.37,4.08 C163.410312,3.96547367 163.396424,3.83883687 163.33225,3.73576908 C163.268075,3.63270128 163.160562,3.56435994 163.04,3.55 C162.11,3.33 161.19,3.09 160.26,2.94 C159.051303,2.76422598 157.825891,2.73401033 156.61,2.85 C156.482161,2.83464686 156.354169,2.87738895 156.261207,2.9664772 C156.168246,3.05556544 156.120098,3.18162345 156.13,3.31 C156.06,3.95 156,4.59 155.92,5.22 C155.90207,5.30858206 155.842486,5.38306274 155.76,5.42 C154.570453,5.61210683 153.408623,5.94789592 152.3,6.42 L151.04,4.85 C150.980258,4.70451516 150.853036,4.59752574 150.699461,4.56361957 C150.545886,4.52971341 150.385443,4.5731922 150.27,4.68 C148.40394,5.70830675 146.737535,7.06310753 145.35,8.68 C145.220205,8.7696138 145.142718,8.91727424 145.142718,9.075 C145.142718,9.23272576 145.220205,9.3803862 145.35,9.47 L146.62,11.05 C145.915018,12.0081991 145.336891,13.0535321 144.9,14.16 C144.888478,14.2214308 144.851371,14.2750613 144.797945,14.3074984 C144.74452,14.3399355 144.679819,14.3481171 144.62,14.33 L142.62,14.18 C142.509654,14.1501497 142.391856,14.1677223 142.295026,14.2284784 C142.198196,14.2892344 142.131127,14.3876567 142.11,14.5 C142.003333,14.8466667 141.91,15.18 141.83,15.5 C141.72,15.98 141.62,16.5 141.51,16.94 L141.36,18.41 L141.36,19.89 C141.36,20.37 141.36,20.61 141.41,20.98 C141.407081,21.0940198 141.451789,21.2041026 141.533382,21.2837989 C141.614976,21.3634952 141.72608,21.4056011 141.84,21.4 L143.76,21.6 C143.823509,21.5941229 143.886443,21.6160967 143.932491,21.6602266 C143.97854,21.7043565 144.00317,21.7662986 144,21.83 C144.184979,23.0050137 144.521098,24.1511808 145,25.24 L143.43,26.51 C143.285848,26.574385 143.18155,26.7042818 143.149825,26.8589385 C143.118101,27.0135952 143.162837,27.1740633 143.27,27.29 C144.282346,29.1440697 145.616465,30.8032536 147.21,32.19 C147.56,32.49 147.67,32.49 148.04,32.19 L149.62,30.98 L149.62,30.98 C150.600674,31.6914839 151.665383,32.2792571 152.79,32.73 C152.854386,32.7925122 152.887406,32.8805656 152.88,32.97 C152.82,33.59 152.75,34.21 152.68,34.83 C152.636149,34.9598092 152.655272,35.1026377 152.731726,35.2163394 C152.808181,35.330041 152.93324,35.4016368 153.07,35.41 L155.26,35.93 L155.48,35.99 L156.93,36.15 L157.16,36.15 L159.41,36.15 C159.545556,36.172617 159.683895,36.1305971 159.783972,36.0364073 C159.884048,35.9422175 159.934367,35.8066771 159.92,35.67 C159.99,35.05 160.05,34.43 160.13,33.81 C160.140688,33.7191588 160.192235,33.6381562 160.27,33.59 C161.470051,33.4015513 162.642249,33.065678 163.76,32.59 L165.02,34.16 C165.082331,34.3057347 165.211308,34.4123168 165.366177,34.4460704 C165.521046,34.479824 165.682677,34.4365793 165.8,34.33 C167.665939,33.3015132 169.332313,31.9467369 170.72,30.33 C170.849795,30.2403862 170.927282,30.0927258 170.927282,29.935 C170.927282,29.7772742 170.849795,29.6296138 170.72,29.54 L169.45,27.96 C170.154982,27.0018009 170.733109,25.9564679 171.17,24.85 C171.181522,24.7885692 171.218629,24.7349387 171.272055,24.7025016 C171.32548,24.6700645 171.390181,24.6618829 171.45,24.68 L173.34,24.89 C173.458468,24.9298909 173.588548,24.9149391 173.694875,24.8492095 C173.801202,24.7834799 173.872726,24.6738042 173.89,24.55 C174.05,23.94 174.23,23.33 174.35,22.72 C174.659446,21.1838123 174.750344,19.6116145 174.62,18.05 L174.62,18.05 Z M166.71,20.47 C166.179187,25.2602116 161.866987,28.7140481 157.076478,28.1859243 C152.285969,27.6578005 148.829712,23.3475399 149.355147,18.5567353 C149.880582,13.7659307 154.188901,10.307255 158.98,10.83 C163.760858,11.3791986 167.200921,15.6859781 166.68,20.47 L166.71,20.47 Z" id="wheel2" fill="#000000" sketch:type="MSShapeGroup"></path>
            <path d="M194.69,11.89 L193.48,11.6 C193.444665,11.6030908 193.409772,11.5903906 193.384691,11.5653093 C193.359609,11.5402279 193.346909,11.5053354 193.35,11.47 C193.324445,10.6867397 193.196698,9.91017171 192.97,9.16 L194.11,8.46 C194.199301,8.43153943 194.270168,8.36297864 194.301567,8.27466843 C194.332967,8.18635822 194.321289,8.08844788 194.27,8.01 C193.766968,6.71135201 193.031638,5.51517005 192.1,4.48 C192.055323,4.39510697 191.97274,4.33670005 191.877813,4.32285644 C191.782885,4.30901283 191.687062,4.34140224 191.62,4.41 L190.48,5.11 C189.921425,4.57532937 189.296277,4.1148706 188.62,3.74 C188.58797,3.72714411 188.563027,3.70111984 188.55154,3.6685741 C188.540053,3.63602837 188.543136,3.60011256 188.56,3.57 L188.85,2.36 C188.89188,2.27950397 188.888764,2.18299749 188.841779,2.10537049 C188.794794,2.02774348 188.710738,1.98022714 188.62,1.98 C188.04,1.76 187.47,1.53 186.88,1.36 C186.143097,1.15312804 185.384708,1.03232275 184.62,1 C184.538006,0.978758847 184.450804,0.99577514 184.382811,1.04628412 C184.314818,1.0967931 184.273343,1.17536545 184.27,1.26 C184.17,1.66 184.08,2.07 183.97,2.47 C183.949812,2.52369289 183.905242,2.56454881 183.85,2.58 C183.067432,2.61245192 182.291725,2.74005733 181.54,2.96 L180.86,1.85 C180.833235,1.75203433 180.760182,1.67339096 180.664453,1.63948673 C180.568723,1.60558249 180.462457,1.6207174 180.38,1.68 C179.09852,2.17982778 177.916625,2.9045428 176.89,3.82 C176.797197,3.86537532 176.733093,3.9539968 176.719046,4.05633967 C176.704999,4.15868254 176.742854,4.26129833 176.82,4.33 L177.47,5.41 C176.938845,5.96916843 176.481767,6.59429027 176.11,7.27 C176.099513,7.31141209 176.070692,7.34576989 176.031735,7.3633004 C175.992778,7.38083091 175.94795,7.37961554 175.91,7.36 L174.7,7.07 C174.631583,7.03767249 174.552476,7.03675535 174.483328,7.06748796 C174.41418,7.09822057 174.361851,7.15755328 174.34,7.23 C174.24,7.44 174.15,7.66 174.07,7.88 C173.99,8.1 173.86,8.48 173.75,8.78 L173.53,9.7 C173.53,10.02 173.44,10.33 173.41,10.7 C173.38,11.07 173.41,11.17 173.35,11.4 C173.33542,11.4737338 173.353461,11.5501696 173.399473,11.6096016 C173.445485,11.6690337 173.514965,11.7056461 173.59,11.71 L174.81,12 C174.852965,11.9989991 174.89401,12.0177878 174.921331,12.050963 C174.948651,12.0841383 174.959221,12.1280239 174.95,12.17 C174.978284,12.9292916 175.102606,13.6819453 175.32,14.41 L174.2,15.1 C174.098602,15.1254512 174.016862,15.2002954 173.982595,15.2990636 C173.948329,15.3978318 173.966152,15.5072185 174.03,15.59 C174.528917,16.863672 175.25012,18.0385906 176.16,19.06 C176.36,19.28 176.43,19.29 176.69,19.13 L177.77,18.47 L177.77,18.47 C178.343648,19.0098414 178.981819,19.4767137 179.67,19.86 C179.693551,19.9107335 179.693551,19.9692665 179.67,20.02 C179.58,20.42 179.48,20.81 179.39,21.2 C179.346515,21.2810179 179.34558,21.3782225 179.387498,21.4600621 C179.429416,21.5419018 179.508843,21.5979447 179.6,21.61 L180.97,22.12 L181.11,22.18 L182.09,22.41 L182.24,22.41 L183.69,22.57 C183.776302,22.5993098 183.871469,22.5847805 183.945094,22.5310544 C184.018718,22.4773283 184.061586,22.3911294 184.06,22.3 C184.15,21.91 184.25,21.51 184.35,21.12 C184.364107,21.0617409 184.404879,21.0135554 184.46,20.99 C185.249363,20.9598801 186.031971,20.8322446 186.79,20.61 L187.47,21.72 C187.499566,21.8183503 187.57454,21.8965343 187.671565,21.930196 C187.76859,21.9638577 187.875875,21.9489065 187.96,21.89 C189.241385,21.3899796 190.423247,20.6652845 191.45,19.75 C191.542803,19.7046247 191.606907,19.6160032 191.620954,19.5136603 C191.635001,19.4113175 191.597146,19.3087017 191.52,19.24 L190.83,18.12 C191.361155,17.5608316 191.818233,16.9357097 192.19,16.26 C192.200487,16.2185879 192.229308,16.1842301 192.268265,16.1666996 C192.307222,16.1491691 192.35205,16.1503845 192.39,16.17 L193.59,16.46 C193.66355,16.4955424 193.749237,16.4958756 193.823061,16.4609063 C193.896885,16.425937 193.950908,16.3594252 193.97,16.28 C194.12,15.9 194.29,15.52 194.42,15.14 C194.732133,14.1893155 194.910509,13.1998342 194.95,12.2 C194.958349,12.1240591 194.935305,12.0480043 194.886211,11.9894684 C194.837116,11.9309325 194.766235,11.8949994 194.69,11.89 L194.69,11.89 Z M189.69,13.13 C188.952608,16.1655029 185.895436,18.0296965 182.859218,17.2952548 C179.823,16.560813 177.955836,13.5054541 178.687327,10.4685237 C179.418817,7.43159326 182.47236,5.56146107 185.51,6.29 C188.520586,7.06161012 190.35202,10.1095432 189.62,13.13 L189.69,13.13 Z" id="wheel3" fill="#000000" sketch:type="MSShapeGroup"></path>
            <path d="M206.25,41.72 L203.94,41.26 C203.871978,41.2662238 203.804709,41.2418911 203.756409,41.1935913 C203.708109,41.1452915 203.683776,41.0780221 203.69,41.01 C203.591032,39.5421737 203.30195,38.093403 202.83,36.7 L204.92,35.31 C205.083197,35.2490964 205.208759,35.1157191 205.259711,34.9491468 C205.310662,34.7825746 205.2812,34.6017778 205.18,34.46 C204.146433,32.0491011 202.682563,29.8465201 200.86,27.96 C200.76886,27.8096276 200.612383,27.7107945 200.437439,27.6931035 C200.262495,27.6754125 200.0894,27.7409182 199.97,27.87 L197.88,29.26 C196.779319,28.2817792 195.555646,27.4514302 194.24,26.79 C194.177572,26.7682295 194.127531,26.7206469 194.102647,26.6593933 C194.077763,26.5981398 194.080442,26.5291399 194.11,26.47 L194.62,24.17 C194.680708,24.0356141 194.677666,23.8810342 194.611719,23.7491404 C194.545772,23.6172466 194.423933,23.5220655 194.28,23.49 C193.18,23.12 192.08,22.73 190.96,22.43 C189.509436,22.080167 188.022146,21.9055867 186.53,21.91 C186.375053,21.8771042 186.213514,21.9152374 186.089635,22.0139534 C185.965756,22.1126694 185.892524,22.2616193 185.89,22.42 C185.73,23.19 185.59,23.96 185.42,24.73 C185.386489,24.8345529 185.304553,24.916489 185.2,24.95 C183.726256,25.0661941 182.272186,25.3617094 180.87,25.83 L179.51,23.83 C179.451752,23.6471652 179.308226,23.5040785 179.125214,23.4463898 C178.942202,23.3887012 178.742567,23.4236178 178.59,23.54 C176.212985,24.5700129 174.038894,26.0160207 172.17,27.81 C171.985676,27.8994791 171.860974,28.0781812 171.840586,28.2820586 C171.820198,28.485936 171.907045,28.6857931 172.07,28.81 L173.44,30.87 C172.46145,31.9381953 171.624564,33.1279842 170.95,34.41 C170.929797,34.4841281 170.87897,34.5461382 170.810249,34.5804984 C170.741529,34.6148587 170.661424,34.6183144 170.59,34.59 L168.28,34.12 C168.154246,34.0681457 168.012793,34.069765 167.888258,34.1244846 C167.763724,34.1792042 167.666859,34.2823003 167.62,34.41 C167.453333,34.8233333 167.3,35.24 167.16,35.66 C166.97,36.23 166.8,36.81 166.62,37.38 L166.27,39.13 C166.21,39.73 166.15,40.33 166.11,40.93 C166.11,41.37 166.09,41.8133333 166.05,42.26 C166.033094,42.3992361 166.075447,42.5391709 166.166726,42.6456632 C166.258005,42.7521556 166.389816,42.8154123 166.53,42.82 L168.84,43.28 C168.917123,43.2795223 168.990768,43.3120484 169.042362,43.3693743 C169.093955,43.4267003 169.118571,43.5033535 169.11,43.58 C169.211463,45.0311851 169.500536,46.4631063 169.97,47.84 L167.91,49.21 C167.725403,49.2694444 167.581807,49.415809 167.525898,49.601507 C167.469989,49.7872049 167.508907,49.9885201 167.63,50.14 C168.655875,52.5085132 170.094966,54.6756154 171.88,56.54 C172.27,56.95 172.41,56.95 172.88,56.64 L174.88,55.32 L174.88,55.32 C176.020554,56.2854205 177.276887,57.1050597 178.62,57.76 C178.693676,57.8451379 178.723277,57.959842 178.7,58.07 C178.56,58.82 178.4,59.57 178.25,60.32 C178.178445,60.4729018 178.184011,60.6507456 178.264987,60.7988736 C178.345964,60.9470016 178.492664,61.0476923 178.66,61.07 L181.27,61.94 L181.53,62.04 L183.25,62.41 L183.53,62.41 L186.28,62.62 C186.442657,62.6646638 186.61686,62.6292356 186.749151,62.5245876 C186.881442,62.4199396 186.956021,62.2585699 186.95,62.09 C187.1,61.34 187.25,60.59 187.41,59.85 C187.433905,59.7399766 187.507907,59.6474732 187.61,59.6 C189.094126,59.4880495 190.558638,59.19246 191.97,58.72 L193.33,60.77 C193.388248,60.9528348 193.531774,61.0959215 193.714786,61.1536102 C193.897798,61.2112988 194.097433,61.1763822 194.25,61.06 C196.610783,60.0187879 198.767671,58.5661895 200.62,56.77 C200.804324,56.6805209 200.929026,56.5018188 200.949414,56.2979414 C200.969802,56.094064 200.882955,55.8942069 200.72,55.77 L199.35,53.71 C200.315251,52.6203013 201.135397,51.410249 201.79,50.11 C201.812414,50.0376971 201.864151,49.9781241 201.9326,49.9458008 C202.00105,49.9134775 202.079924,49.9113729 202.15,49.94 L204.47,50.41 C204.609919,50.4702351 204.76944,50.4647701 204.904909,50.3951003 C205.040378,50.3254305 205.137611,50.1988511 205.17,50.05 C205.44,49.33 205.71,48.61 205.93,47.87 C206.453574,46.0593937 206.722819,44.184774 206.73,42.3 C206.746762,42.15874 206.704922,42.0167802 206.614228,41.9071908 C206.523533,41.7976014 206.391903,41.7299514 206.25,41.72 L206.25,41.72 Z M196.85,44.41 C195.671865,50.1826678 190.037922,53.9079265 184.264911,52.7314749 C178.4919,51.5550233 174.764999,45.9221674 175.939767,40.1488135 C177.114535,34.3754596 182.746304,30.6469156 188.52,31.82 C194.291782,33.0039433 198.017392,38.6348477 196.85,44.41 L196.85,44.41 Z" id="wheel1" fill="#000000" sketch:type="MSShapeGroup"></path>
            <path d="M18.82,17.41 L11.5,33.95 L9.62,33.95 L2.21,17.41 L2.21,37.31 L0.38,37.31 L0.38,13.2 L2.21,13.2 L10.62,31.82 L18.82,13.2 L20.62,13.2 L20.62,37.34 L18.82,37.34 L18.82,17.41 L18.82,17.41 Z" id="m" fill="#1D1D1B" sketch:type="MSShapeGroup"></path>
            <path d="M33.67,37.34 L31.84,37.34 L31.84,27.34 L24.72,13.2 L26.72,13.2 L32.82,25.41 L38.82,13.2 L40.82,13.2 L33.67,27.34 L33.67,37.34 L33.67,37.34 Z" id="y" fill="#1D1D1B" sketch:type="MSShapeGroup"></path>
            <path d="M20.62,97.41 C9.12,97.41 0,89.67 0,77.8 L0,41.03 L10.92,41.03 L10.92,77.41 C10.92,83.85 14.69,87.7 20.59,87.7 C26.49,87.7 30.33,83.85 30.33,77.41 L30.33,41.03 L41.18,41.03 L41.18,77.8 C41.18,89.67 32.06,97.41 20.62,97.41 L20.62,97.41 Z" id="u" fill="#1D1D1B" sketch:type="MSShapeGroup"></path>
            <path d="M73.79,96.98 L50.38,96.98 L50.38,40.98 L72.85,40.98 C83.77,40.98 90.14,47.11 90.14,56.7 C90.1907486,61.5557321 87.5186338,66.0311382 83.22,68.29 C86.6,69.86 90.92,73.4 90.92,80.86 C90.93,91.32 83.77,96.98 73.79,96.98 L73.79,96.98 Z M71.99,50.77 L61.3,50.77 L61.3,63.66 L71.99,63.66 C76.63,63.66 79.22,61.07 79.22,57.22 C79.22,53.37 76.62,50.77 71.99,50.77 L71.99,50.77 Z M72.7,73.48 L61.3,73.48 L61.3,87.23 L72.69,87.23 C77.69,87.23 80,84.09 80,80.31 C80,76.53 77.62,73.48 72.69,73.48 L72.7,73.48 Z" id="b" fill="#1D1D1B" sketch:type="MSShapeGroup"></path>
            <path d="M99.1,96.98 L99.1,40.98 L110.02,40.98 L110.02,96.98 L99.1,96.98 L99.1,96.98 Z" id="i" fill="#1D1D1B" sketch:type="MSShapeGroup"></path>
            <path d="M138.79,97.41 C133.129505,97.5371047 127.668267,95.3185899 123.7,91.28 C121.367546,89.0000067 119.778141,86.0686696 119.14,82.87 C118.403491,78.27166 118.088849,73.6156225 118.2,68.96 C118.088849,64.3043775 118.403491,59.64834 119.14,55.05 C119.760607,51.8450199 121.352691,48.9087422 123.7,46.64 C127.668267,42.6014101 133.129505,40.3828953 138.79,40.51 C149.56,40.51 157.49,46.8 159.38,58.19 L148.29,58.19 C147.11,53.4 144.12,50.25 138.86,50.25 C136.202982,50.0899221 133.620497,51.1634981 131.86,53.16 C129.58,55.6 129.11,58.16 129.11,68.95 C129.11,79.74 129.62,82.41 131.87,84.8 C133.630497,86.7965019 136.212982,87.8700779 138.87,87.71 C144.13,87.71 147.12,84.57 148.3,79.77 L159.38,79.77 C157.49,91.16 149.47,97.41 138.79,97.41 L138.79,97.41 Z" id="c" fill="#1D1D1B" sketch:type="MSShapeGroup"></path>
        </g>
    </g>
</svg>